// Jest Snapshot v1, https://goo.gl/fbAQLP

exports[`<Modal /> Should Match The Snapshot 1`] = `
<div>
  <div
    class="modal-support"
    style="opacity: 1;"
  >
    <div
      class="modal"
      style="transform: scale(1);"
    >
      <div
        class="modal-icon"
      >
        <svg
          fill="none"
          height="24"
          stroke="currentColor"
          stroke-linecap="round"
          stroke-linejoin="round"
          stroke-width="2"
          viewBox="0 0 24 24"
          width="24"
          xmlns="http://www.w3.org/2000/svg"
        >
          <rect
            height="16"
            rx="2"
            ry="2"
            width="22"
            x="1"
            y="4"
          />
          <line
            x1="1"
            x2="23"
            y1="10"
            y2="10"
          />
        </svg>
      </div>
      <p
        class="modal-title"
      >
        Hello World
      </p>
      <p
        class="modal-description"
      >
        Lorem ipsum dolor sit amet, consectetur adipiscing elit. Fusce finibus, nisl eget aliquet euismod, turpis velit dictum sem, sit amet venenatis elit nibh vel nisl.
      </p>
    </div>
  </div>
</div>
`;
